Division,WeightClassKg,Place,Name,Team,BodyweightKg,Best3SquatKg,Best3BenchKg,Best3DeadliftKg,TotalKg,Equipment,Event,Sex
Junior Varsity,55.79,1,Randy Trevino,Gregory-Portland,51.8,142.88,74.84,142.88,360.61,Single-ply,SBD,M
Junior Varsity,51.71,2,Joe Castillo #4,Gregory-Portland,51.53,136.08,70.31,140.61,347,Single-ply,SBD,M
Junior Varsity,55.79,1,David Van #2,Gregory-Portland,54.52,113.4,56.7,127.01,297.1,Single-ply,SBD,M
Junior Varsity,55.79,2,Amit Patel,Three Rivers,53.61,102.06,61.23,113.4,276.69,Single-ply,SBD,M
Junior Varsity,55.79,DQ,Cesar Garcia,Bishop,55.7,108.86,,,,Single-ply,SBD,M
Junior Varsity,67.13,1,Tristan Ruiz,Corpus Christi Calallen,60.06,142.88,81.65,149.69,374.21,Single-ply,SBD,M
Junior Varsity,59.87,2,Miguel Cantu,Corpus Christi Calallen,59.69,140.61,74.84,136.08,351.53,Single-ply,SBD,M
Junior Varsity,67.13,3,Daniel Martinez #16,Port Lavaca Calhoun,59.96,127.01,61.23,138.35,326.59,Single-ply,SBD,M
Junior Varsity,59.87,4,Alex Rodriguez #3,Corpus Christi Calallen,58.97,117.93,61.23,129.27,308.44,Single-ply,SBD,M
Junior Varsity,67.13,1,Josue Gonzalez #2,Corpus Christi Calallen,66.13,165.56,104.33,165.56,435.45,Single-ply,SBD,M
Junior Varsity,67.13,2,Samuel Navarro,Beeville Jones,61.05,158.76,86.18,154.22,399.16,Single-ply,SBD,M
Junior Varsity,67.13,3,Daniel Nay,Port Lavaca Calhoun,65.41,145.15,97.52,142.88,385.55,Single-ply,SBD,M
Junior Varsity,67.13,4,Quinton Moreno,Gregory-Portland,65.77,127.01,88.45,163.29,378.75,Single-ply,SBD,M
Junior Varsity,67.13,5,Colton Hahn,Port Lavaca Calhoun,61.14,147.42,74.84,154.22,376.48,Single-ply,SBD,M
Junior Varsity,67.13,6,Victor Vera,Bishop,64.95,129.27,81.65,163.29,374.21,Single-ply,SBD,M
Junior Varsity,74.84,7,Aaron Martinez,Corpus Christi Calallen,67.36,142.88,83.91,147.42,374.21,Single-ply,SBD,M
Junior Varsity,67.13,8,Miguel Vasquez,Corpus Christi Calallen,62.96,136.08,65.77,136.08,337.93,Single-ply,SBD,M
Junior Varsity,67.13,9,Josh Cruz,Bishop,63.23,131.54,70.31,129.27,331.12,Single-ply,SBD,M
Junior Varsity,67.13,DQ,Colton Hudspeth,Gregory-Portland,65.86,,,,,Single-ply,SBD,M
Junior Varsity,74.84,1,Carlos Charles,Bishop,73.75,197.31,111.13,204.12,512.56,Single-ply,SBD,M
Junior Varsity,74.84,2,Nathan Sanchez #3,Corpus Christi Calallen,71.85,192.78,92.99,204.12,489.88,Single-ply,SBD,M
Junior Varsity,74.84,3,Joe Caldera,Port Lavaca Calhoun,73.21,174.63,124.74,181.44,480.81,Single-ply,SBD,M
Junior Varsity,74.84,4,Randall Saenz,Three Rivers,70.49,192.78,95.25,174.63,462.66,Single-ply,SBD,M
Junior Varsity,74.84,5,Victor Ta,Port Lavaca Calhoun,73.39,188.24,90.72,174.63,453.59,Single-ply,SBD,M
Junior Varsity,74.84,6,Aaron Flores #3,Corpus Christi Calallen,72.21,145.15,92.99,181.44,419.57,Single-ply,SBD,M
Junior Varsity,74.84,7,Zenon Sanchez,Three Rivers,70.85,170.1,90.72,151.95,412.77,Single-ply,SBD,M
Junior Varsity,74.84,8,Byron Davidson,Corpus Christi Calallen,69.13,142.88,86.18,167.83,396.89,Single-ply,SBD,M
Junior Varsity,74.84,9,Chris Brewer,Port Lavaca Calhoun,72.94,156.49,83.91,154.22,394.63,Single-ply,SBD,M
Junior Varsity,74.84,10,Miguel Munoz,Bishop,73.94,136.08,81.65,165.56,383.29,Single-ply,SBD,M
Junior Varsity,74.84,11,Donald Rye,Kingsville King,73.84,115.67,83.91,147.42,347,Single-ply,SBD,M
Junior Varsity,74.84,12,Ramon Bueno,Alice,71.49,115.67,77.11,145.15,337.93,Single-ply,SBD,M
Junior Varsity,74.84,13,Johnathan Garza,Kingsville King,69.76,111.13,68.04,154.22,333.39,Single-ply,SBD,M
Junior Varsity,82.1,1,Marco Hernandez,Three Rivers,77.84,170.1,90.72,174.63,435.45,Single-ply,SBD,M
Junior Varsity,82.1,2,Esteban Morales,Port Lavaca Calhoun,82.1,185.97,102.06,142.88,430.91,Single-ply,SBD,M
Junior Varsity,89.81,3,Hagan Johnston,Three Rivers,82.33,156.49,77.11,151.95,385.55,Single-ply,SBD,M
Junior Varsity,82.1,4,Aaron Charles,Beeville Jones,80.47,149.69,95.25,136.08,381.02,Single-ply,SBD,M
Junior Varsity,82.1,5,Oscar Montalvo,Alice,78.11,115.67,99.79,145.15,360.61,Single-ply,SBD,M
Junior Varsity,82.1,6,Dalton Sowell,Gregory-Portland,81.65,136.08,74.84,149.69,360.61,Single-ply,SBD,M
Junior Varsity,82.1,7,Andres Solis,Alice,78.47,120.2,90.72,133.81,344.73,Single-ply,SBD,M
Junior Varsity,82.1,8,Albert Guerrero,Gregory-Portland,79.02,108.86,77.11,127.01,312.98,Single-ply,SBD,M
Junior Varsity,89.81,1,Lonnie Reyes,Three Rivers,85.09,179.17,111.13,190.51,480.81,Single-ply,SBD,M
Junior Varsity,89.81,2,Manny Jimenez,Kingsville King,86.73,165.56,102.06,185.97,453.59,Single-ply,SBD,M
Junior Varsity,89.81,3,Aaron Meineke,Three Rivers,85,158.76,88.45,183.7,430.91,Single-ply,SBD,M
Junior Varsity,89.81,4,Arturo Sanchez,Port Lavaca Calhoun,88.72,154.22,86.18,172.37,412.77,Single-ply,SBD,M
Junior Varsity,89.81,5,EJ Garza,Gregory-Portland,83.28,151.95,74.84,151.95,378.75,Single-ply,SBD,M
Junior Varsity,89.81,6,Tim Garcia,Alice,84.64,113.4,88.45,136.08,337.93,Single-ply,SBD,M
Junior Varsity,89.81,DQ,Adriel Cordova,Port Lavaca Calhoun,87.09,,,,,Single-ply,SBD,M
Junior Varsity,99.79,1,Devon Bisby,Gregory-Portland,91.85,217.72,140.61,226.8,585.13,Single-ply,SBD,M
Junior Varsity,99.79,2,Andres Garza,Alice,98.34,102.06,97.52,117.93,317.51,Single-ply,SBD,M
Junior Varsity,99.79,3,Aaron Gutierrez,Kingsville King,96.43,102.06,72.57,111.13,285.76,Single-ply,SBD,M
Junior Varsity,99.79,4,Nathaniel Segovia,Beeville Jones,93.08,106.59,52.16,88.45,247.21,Single-ply,SBD,M
Junior Varsity,99.79,DQ,Shane Edens,Three Rivers,92.71,165.56,97.52,,,Single-ply,SBD,M
Junior Varsity,109.77,1,Marcus Hinojosa,Bishop,108.14,188.24,106.59,174.63,469.47,Single-ply,SBD,M
Junior Varsity,109.77,2,Ariel Solis,Alice,107.59,188.24,113.4,165.56,467.2,Single-ply,SBD,M
Junior Varsity,109.77,3,Louis Ortiz,Gregory-Portland,107.95,158.76,104.33,151.95,415.04,Single-ply,SBD,M
Junior Varsity,109.77,4,Julian Hernandez,Port Lavaca Calhoun,109.04,149.69,97.52,147.42,394.63,Single-ply,SBD,M
Junior Varsity,109.77,5,Jordan Kasper-Hines,Three Rivers,103.15,142.88,77.11,170.1,390.09,Single-ply,SBD,M
Junior Varsity,124.74,6,Jonathan Villarreal,Alice,110,149.69,83.91,149.69,383.29,Single-ply,SBD,M
Junior Varsity,109.77,7,Frank Meza,Kingsville King,104.78,106.59,83.91,140.61,331.12,Single-ply,SBD,M
Junior Varsity,124.74,1,David Silva,Corpus Christi Calallen,113.13,201.85,106.59,208.65,517.1,Single-ply,SBD,M
Junior Varsity,124.74,2,Zack Gonzales,Bishop,122.29,204.12,111.13,183.7,498.95,Single-ply,SBD,M
Junior Varsity,124.74,3,Dylan Duff,Corpus Christi Calallen,110.59,174.63,127.01,167.83,469.47,Single-ply,SBD,M
Junior Varsity,124.74,4,Juan Macias,Alice,117.21,188.24,120.2,158.76,467.2,Single-ply,SBD,M
Junior Varsity,124.74,5,Aaron Aguilera,Bishop,111.95,151.95,120.2,192.78,464.93,Single-ply,SBD,M
Junior Varsity,124.74,6,Manuel Gonzalez,Alice,122.2,165.56,120.2,170.1,455.86,Single-ply,SBD,M
Junior Varsity,124.74,7,Arturo Romero,Port Lavaca Calhoun,116.85,170.1,111.13,145.15,426.38,Single-ply,SBD,M
Junior Varsity,124.74,8,Thomas Zaragosa,Bishop,120.84,142.88,102.06,167.83,412.77,Single-ply,SBD,M
Junior Varsity,124.74,9,Mike Castro,Alice,124.1,158.76,83.91,156.49,399.16,Single-ply,SBD,M
Junior Varsity,124.74,DQ,Hunter Cartwright,Corpus Christi Calallen,112.31,,,,,Single-ply,SBD,M
Junior Varsity,124.74+,1,John Lazo,Alice,151.41,149.69,102.06,149.69,401.43,Single-ply,SBD,M
